
======================================
sáb nov 21 08:28:58 -03 2020
192.168.2.10 
=====================================


======================================
sáb nov 21 08:32:17 -03 2020
192.168.2.10 
=====================================


======================================
seg nov 23 05:42:04 -03 2020
192.168.2.10 
=====================================


======================================
seg nov 23 05:45:44 -03 2020
192.168.2.10 
=====================================


======================================
sex nov 27 22:11:41 -03 2020
192.168.2.10 
=====================================


======================================
sáb nov 28 06:00:37 -03 2020
192.168.2.10 
=====================================


======================================
qua dez  2 00:41:39 -03 2020
192.168.2.10 
=====================================


======================================
ter dez  8 05:22:58 -03 2020
192.168.2.10 
=====================================


======================================
ter dez  8 06:13:34 -03 2020
192.168.2.10 
=====================================


======================================
ter dez  8 18:03:15 -03 2020
192.168.2.10 
=====================================

